BKM Assignment
…
3.Exploratory Data Analysis for BKM Dataset

3.1.Top 3 Monthly Card Transaction Amounts in Total

top_sales_bkm <- bkm_full %>% group_by(yil_ay, isyeri_grubu) %>% summarise(islem_tutari = sum(kk_islem_tutari) + sum(bk_islem_tutari)) %>% top_n(3)
top_sales_bkm

## # A tibble: 90 x 3
## # Groups:   yil_ay [30]
##    yil_ay     isyeri_grubu                   islem_tutari
##    <date>     <chr>                                 <dbl>
##  1 2017-01-01 BENZİN VE YAKIT İSTASYONLARI          4289.
##  2 2017-01-01 GİYİM VE AKSESUAR                     3871.
##  3 2017-01-01 MARKET VE ALIŞVERİŞ MERKEZLERİ        9438.
##  4 2017-02-01 BENZİN VE YAKIT İSTASYONLARI          4214.
##  5 2017-02-01 GİYİM VE AKSESUAR                     3520.
##  6 2017-02-01 MARKET VE ALIŞVERİŞ MERKEZLERİ        9135.
##  7 2017-03-01 BENZİN VE YAKIT İSTASYONLARI          4888.
##  8 2017-03-01 GİYİM VE AKSESUAR                     4156.
##  9 2017-03-01 MARKET VE ALIŞVERİŞ MERKEZLERİ       10559.
## 10 2017-04-01 BENZİN VE YAKIT İSTASYONLARI          4710.
## # ... with 80 more rows
…
